4 Paquetes de R – R para análisis de datos
…
Figura 4.3: Sección OUTLINE dentro de la Barra laterla primaria de Positron

Una vez cargado el paquete tidyverse puedes explorar la base de datos mpg que contiene información de economía de combustible desde 1999 hasta 2008 para 38 modelos populares de automóviles. Agrega al archivo 001_uso-paquetes.R el siguiente contenido y ejecuta el código (Ver Note 4.1) para que puedas visualizar parte de los datos en la consola donde el resultado puede variar dependiendo del tamaño de la pantalla de tu equipo:

Listado 4.3: Base de datos mpg

# Explorar base de datos mpg ----
mpg

# A tibble: 234 × 11
   manufacturer model    displ  year   cyl trans drv     cty
   <chr>        <chr>    <dbl> <int> <int> <chr> <chr> <int>
 1 audi         a4         1.8  1999     4 auto… f        18
 2 audi         a4         1.8  1999     4 manu… f        21
 3 audi         a4         2    2008     4 manu… f        20
 4 audi         a4         2    2008     4 auto… f        21
 5 audi         a4         2.8  1999     6 auto… f        16
 6 audi         a4         2.8  1999     6 manu… f        18
 7 audi         a4         3.1  2008     6 auto… f        18
 8 audi         a4 quat…   1.8  1999     4 manu… 4        18
 9 audi         a4 quat…   1.8  1999     4 auto… 4        16
10 audi         a4 quat…   2    2008     4 manu… 4        20
# ℹ 224 more rows
# ℹ 3 more variables: hwy <int>, fl <chr>, class <chr>
…
