10 Verbos de una sola tabla – R para análisis de datos
…
Para utilizar un ejemplo concreto puedes utilizar el conjunto de datos utilizados en el Capítulo 6 respecto a 2021-2024_saber-pro-genericas_faedis.rds para identificar las filas correspondientes al año \(2022\) y de estudiantes pertenecientes al género masculino:

# Importar datos ----
saber_pro_genericas_faedis_2021_2024 <- read_rds(
  file = "data/2021-2024_saber-pro-genericas_faedis.rds"
)

# Filtrar ---
filter(
  saber_pro_genericas_faedis_2021_2024,
  ano == 2022 & estu_genero == "M"
)

# A tibble: 194 × 20
     ano estu_consecutivo estu_genero estu_semestrecursa
   <int> <chr>            <fct>       <ord>             
 1  2022 EK202220120492   M           09                
 2  2022 EK202220159443   M           08                
 3  2022 EK202220121639   M           09                
 4  2022 EK202220120505   M           09                
 5  2022 EK202220120480   M           08                
 6  2022 EK202220128207   M           08                
 7  2022 EK202220121516   M           09                
 8  2022 EK202220120491   M           08                
 9  2022 EK202220120507   M           10                
10  2022 EK202220120496   M           08                
# ℹ 184 more rows
# ℹ 16 more variables: fami_estratovivienda <ord>,
#   fami_educacionmadre <ord>, fami_educacionpadre <fct>,
#   estu_cod_depto_presentacion <chr>,
#   estu_depto_presentacion <chr>,
#   estu_cod_mcpio_presentacion <chr>,
#   estu_mcpio_presentacion <chr>, …
…
Figura 10.3: Representación gráfica de la función arrange()

Para utilizar un ejemplo concreto puedes utilizar el conjunto de datos 2021-2024_saber-pro-genericas_faedis.rds para ordenar la variable ano en forma descendente y luego al interior de cada año la variable estu_semestrecursa en forma ascendente:

arrange(
  saber_pro_genericas_faedis_2021_2024,
  desc(ano),
  estu_semestrecursa
)

# A tibble: 1,239 × 20
     ano estu_consecutivo estu_genero estu_semestrecursa
   <int> <chr>            <fct>       <ord>             
 1  2024 EK202430030817   F           06                
 2  2024 EK202430030783   F           06                
 3  2024 EK202410086302   F           07                
 4  2024 EK202410000136   F           07                
 5  2024 EK202410000145   M           07                
 6  2024 EK202410129804   F           07                
 7  2024 EK202410067203   M           07                
 8  2024 EK202410067226   M           07                
 9  2024 EK202410129912   M           07                
10  2024 EK202410129981   M           07                
# ℹ 1,229 more rows
# ℹ 16 more variables: fami_estratovivienda <ord>,
#   fami_educacionmadre <ord>, fami_educacionpadre <fct>,
#   estu_cod_depto_presentacion <chr>,
#   estu_depto_presentacion <chr>,
#   estu_cod_mcpio_presentacion <chr>,
#   estu_mcpio_presentacion <chr>, …
…
Figura 10.4: Representación gráfica de la función select()

Para utilizar un ejemplo concreto puedes utilizar el conjunto de datos 2021-2024_saber-pro-genericas_faedis.rds para seleccionar las columnas asociadas con las variables ano, estu_consecutivo y punt_global:

select(
  saber_pro_genericas_faedis_2021_2024,
  ano,
  estu_consecutivo,
  punt_global
)

# A tibble: 1,239 × 3
     ano estu_consecutivo punt_global
   <int> <chr>                  <dbl>
 1  2021 EK202120262469           139
 2  2021 EK202120116785           170
 3  2021 EK202120116868           128
 4  2021 EK202120116831           155
 5  2021 EK202120116814           166
 6  2021 EK202120117053           142
 7  2021 EK202120262258           151
 8  2021 EK202120262692           145
 9  2021 EK202120117033           132
10  2021 EK202120117014           146
# ℹ 1,229 more rows
…
Figura 10.5: Representación gráfica de la función rename()

Para utilizar un ejemplo concreto puedes utilizar el conjunto de datos 2021-2024_saber-pro-genericas_faedis.rds para renombrar la columna estu_consecutivo por un nombre más descriptivo como id_saber_pro_estudiante:

rename(
  saber_pro_genericas_faedis_2021_2024,
  id_saber_pro_estudiante = estu_consecutivo
)

# A tibble: 1,239 × 20
     ano id_saber_pro_estudiante estu_genero
   <int> <chr>                   <fct>      
 1  2021 EK202120262469          M          
 2  2021 EK202120116785          M          
 3  2021 EK202120116868          M          
 4  2021 EK202120116831          M          
 5  2021 EK202120116814          F          
 6  2021 EK202120117053          F          
 7  2021 EK202120262258          F          
 8  2021 EK202120262692          F          
 9  2021 EK202120117033          F          
10  2021 EK202120117014          F          
# ℹ 1,229 more rows
# ℹ 17 more variables: estu_semestrecursa <ord>,
#   fami_estratovivienda <ord>, fami_educacionmadre <ord>,
#   fami_educacionpadre <fct>,
#   estu_cod_depto_presentacion <chr>,
#   estu_depto_presentacion <chr>,
#   estu_cod_mcpio_presentacion <chr>, …
…
Figura 10.6: Representación gráfica de la función mutate()

Para utilizar un ejemplo concreto puedes utilizar el conjunto de datos 2021-2024_saber-pro-genericas_faedis.rds para generar una nueva columna denominada punt_global_norm donde corresponde a la variable punt_global normalizada en el intervalo \([0, 1]\)3 y conservando sólo las columnas utilizadas para generar ésta nueva variable a través del parámetro .keep con el argumento "used", como .keep = "used":

mutate(
  saber_pro_genericas_faedis_2021_2024,
  punt_global_norm = (punt_global - min(punt_global)) /
    (max(punt_global) - min(punt_global)),
  .keep = "used"
)

# A tibble: 1,239 × 2
   punt_global punt_global_norm
         <dbl>            <dbl>
 1         139            0.610
 2         170            0.746
 3         128            0.561
 4         155            0.680
 5         166            0.728
 6         142            0.623
 7         151            0.662
 8         145            0.636
 9         132            0.579
10         146            0.640
# ℹ 1,229 more rows
…
Figura 10.7: Representación gráfica de la función relocate()

Para utilizar un ejemplo concreto puedes utilizar el conjunto de datos 2021-2024_saber-pro-genericas_faedis.rds para mover la variable punt_global después de la columna asociada con estu_consecutivo utilizando el parámetro .after junto con estu_consecutivo, como .after = estu_consecutivo:

relocate(
  saber_pro_genericas_faedis_2021_2024,
  punt_global,
  .after = estu_consecutivo
)

# A tibble: 1,239 × 20
     ano estu_consecutivo punt_global estu_genero
   <int> <chr>                  <dbl> <fct>      
 1  2021 EK202120262469           139 M          
 2  2021 EK202120116785           170 M          
 3  2021 EK202120116868           128 M          
 4  2021 EK202120116831           155 M          
 5  2021 EK202120116814           166 F          
 6  2021 EK202120117053           142 F          
 7  2021 EK202120262258           151 F          
 8  2021 EK202120262692           145 F          
 9  2021 EK202120117033           132 F          
10  2021 EK202120117014           146 F          
# ℹ 1,229 more rows
# ℹ 16 more variables: estu_semestrecursa <ord>,
#   fami_estratovivienda <ord>, fami_educacionmadre <ord>,
#   fami_educacionpadre <fct>,
#   estu_cod_depto_presentacion <chr>,
#   estu_depto_presentacion <chr>,
#   estu_cod_mcpio_presentacion <chr>, …
…
